<svg xmlns="http://www.w3.org/2000/svg" width="20" height="18" viewBox="0 0 20 18">
    <g fill="none" fill-rule="evenodd">
        <g fill="#8895AE" fill-rule="nonzero">
            <g>
                <g>
                    <path d="M21.09 9.345h-4.354l-3.981-5.963C12.582 3.127 12.29 3 12 3c-.29 0-.582.127-.755.39L7.264 9.346H2.909c-.5 0-.909.41-.909.91 0 .081.01.163.036.245l2.31 8.427c.209.764.909 1.328 1.745 1.328h11.818c.836 0 1.536-.564 1.755-1.328l2.309-8.427.027-.245c0-.5-.41-.91-.91-.91zM12 5.527l2.545 3.818h-5.09L12 5.527zm5.91 12.91l-11.81.008-2-7.281h15.81l-2 7.272zM12 12.981c-1 0-1.818.818-1.818 1.818S11 16.618 12 16.618s1.818-.818 1.818-1.818S13 12.982 12 12.982z" transform="translate(-130 -193) translate(104) translate(24 190)"/>
                </g>
            </g>
        </g>
    </g>
</svg>
